 {
     "start": [
         "22.05.2020 01:16:00",
         "22.05.2020 01:50:00",
         "22.05.2020 04:06:00"],
     "end": [
        "22.05.2020 01:28:00",
        "22.05.2020 03:05:00",
        "22.05.2020 04:37:00"]
 }