 {
     "start": [
         "06.06.2020 00:08:00",
         "06.06.2020 01:14:00",
         "06.06.2020 03:13:00",
         "06.06.2020 05:15:00",
         "06.06.2020 06:46:00"],
     "end": [
        "06.06.2020 00:32:00",
        "06.06.2020 02:00:00",
        "06.06.2020 03:45:00",
        "06.06.2020 05:52:00",
        "06.06.2020 06:55:00"]
 }